\relax 
\catcode `"\active 
\select@language{polish}
\@writefile{toc}{\select@language{polish}}
\@writefile{lof}{\select@language{polish}}
\@writefile{lot}{\select@language{polish}}
\@writefile{toc}{\contentsline {section}{\numberline {1}Wst\IeC {\k e}p}{3}}
\@writefile{toc}{\contentsline {subsection}{\numberline {1.1}Cel projektu}{3}}
\@writefile{toc}{\contentsline {subsection}{\numberline {1.2}Zakres projektu}{3}}
\@writefile{toc}{\contentsline {section}{\numberline {2}Analiza wymaga\IeC {\'n}}{3}}
\@writefile{toc}{\contentsline {subsection}{\numberline {2.1}Opis dzia\IeC {\l }ania i schemat logiczny}{3}}
\@writefile{toc}{\contentsline {subsection}{\numberline {2.2}Wymagania funkcjonalne}{3}}
\@writefile{toc}{\contentsline {subsection}{\numberline {2.3}Wymagania niefunkcjonalne}{4}}
\@writefile{toc}{\contentsline {subsubsection}{\numberline {2.3.1}Wykorzystywane technologie i narz\IeC {\k e}dzia}{4}}
\@writefile{toc}{\contentsline {subsubsection}{\numberline {2.3.2}Wymagania dotycz\IeC {\k a}ce rozmiaru bazy danych}{4}}
\@writefile{toc}{\contentsline {subsubsection}{\numberline {2.3.3}Wymagania dotycz\IeC {\k a}ce bezpiecze\IeC {\'n}stwa systemu}{4}}
\@writefile{toc}{\contentsline {subsection}{\numberline {2.4}Przyj\IeC {\k e}te za\IeC {\l }o\IeC {\.z}enia projektowe - podsumowanie}{4}}
\@writefile{toc}{\contentsline {section}{\numberline {3}Projekt systemu}{5}}
\@writefile{toc}{\contentsline {subsection}{\numberline {3.1}Projekt bazy danych}{5}}
\@writefile{toc}{\contentsline {subsubsection}{\numberline {3.1.1}Analiza rzeczywisto\IeC {\'s}ci i uproszczony model konceptualny}{5}}
\@writefile{lof}{\contentsline {figure}{\numberline {1}{\ignorespaces Model konceptualny bazy danych\relax }}{5}}
\@writefile{toc}{\contentsline {subsubsection}{\numberline {3.1.2}Model logiczny i fizyczny}{6}}
\@writefile{lof}{\contentsline {figure}{\numberline {2}{\ignorespaces Model logiczny i fizyczny bazy danych\relax }}{6}}
\@writefile{toc}{\contentsline {subsubsection}{\numberline {3.1.3}Inne elementy schematu - mechanizmy przetwarzania danych}{7}}
\@writefile{toc}{\contentsline {subsubsection}{\numberline {3.1.4}Projekt mechanizm\IeC {\'o}w danych bezpiecze\IeC {\'n}stwa na poziomie bazy danych}{8}}
\@writefile{toc}{\contentsline {subsection}{\numberline {3.2}Projekt aplikacji u\IeC {\.z}ytkownika}{8}}
\@writefile{toc}{\contentsline {subsubsection}{\numberline {3.2.1}Architektura aplikacji i diagramy projektowe}{8}}
\@writefile{lof}{\contentsline {figure}{\numberline {3}{\ignorespaces Diagram przypadk\IeC {\'o}w u\IeC {\.z}ycia\relax }}{8}}
\@writefile{toc}{\contentsline {subsubsection}{\numberline {3.2.2}Interfejs graficzny i struktura menu}{9}}
\@writefile{lof}{\contentsline {figure}{\numberline {4}{\ignorespaces Interfejs graficzny - menu logowania\relax }}{9}}
\@writefile{lof}{\contentsline {figure}{\numberline {5}{\ignorespaces Interfejs graficzny - menu g\IeC {\l }\IeC {\'o}wne\relax }}{9}}
\@writefile{lof}{\contentsline {figure}{\numberline {6}{\ignorespaces Interfejs graficzny - menu obs\IeC {\l }ugi ksi\IeC {\k a}\IeC {\.z}ki\relax }}{10}}
\@writefile{lof}{\contentsline {figure}{\numberline {7}{\ignorespaces Interfejs graficzny - menu wypo\IeC {\.z}yczenia ksi\IeC {\k a}\IeC {\.z}ki\relax }}{10}}
\@writefile{lof}{\contentsline {figure}{\numberline {8}{\ignorespaces Interfejs graficzny - menu obs\IeC {\l }ugi u\IeC {\.z}ytkownika\relax }}{11}}
\@writefile{toc}{\contentsline {subsubsection}{\numberline {3.2.3}Metoda pod\IeC {\l }\IeC {\k a}czenia do bazy danych - integracja z baz\IeC {\k a} danych}{11}}
\@writefile{toc}{\contentsline {subsubsection}{\numberline {3.2.4}Projekt zabezpiecze\IeC {\'n} na poziomie aplikacji}{11}}
\@writefile{toc}{\contentsline {section}{\numberline {4}Implementacja systemu baz danych}{11}}
\@writefile{toc}{\contentsline {subsection}{\numberline {4.1}Tworzenie tabel i definiowanie ogranicze\IeC {\'n}}{11}}
\@writefile{lof}{\contentsline {figure}{\numberline {9}{\ignorespaces Zaimplementowana tabela biblioteka\relax }}{11}}
\@writefile{lof}{\contentsline {figure}{\numberline {10}{\ignorespaces Zaimplementowana tabela czytelnik\relax }}{12}}
\@writefile{lof}{\contentsline {figure}{\numberline {11}{\ignorespaces Zaimplementowana tabela pracownik\relax }}{12}}
\@writefile{lof}{\contentsline {figure}{\numberline {12}{\ignorespaces Zaimplementowana tabela adres\relax }}{12}}
\@writefile{lof}{\contentsline {figure}{\numberline {13}{\ignorespaces Zaimplementowana tabela ksiazka\relax }}{12}}
\@writefile{lof}{\contentsline {figure}{\numberline {14}{\ignorespaces Zaimplementowana tabela autor\relax }}{12}}
\@writefile{lof}{\contentsline {figure}{\numberline {15}{\ignorespaces Zaimplementowana tabela grupa autor\relax }}{13}}
\@writefile{lof}{\contentsline {figure}{\numberline {16}{\ignorespaces Zaimplementowana tabela wydawnictwo\relax }}{13}}
\@writefile{lof}{\contentsline {figure}{\numberline {17}{\ignorespaces Zaimplementowana tabela grupa rok\relax }}{13}}
\@writefile{lof}{\contentsline {figure}{\numberline {18}{\ignorespaces Zaimplementowana tabela grupa autor\relax }}{13}}
\@writefile{lof}{\contentsline {figure}{\numberline {19}{\ignorespaces Zaimplementowana tabela kara\relax }}{13}}
\@writefile{lof}{\contentsline {figure}{\numberline {20}{\ignorespaces Diagram przedstawiaj\IeC {\k a}cy relacje mi\IeC {\k e}dzy tabelami\relax }}{14}}
\@writefile{toc}{\contentsline {subsection}{\numberline {4.2}Implementacja mechanizm\IeC {\'o}w przetwarzania danych}{14}}
\@writefile{lof}{\contentsline {figure}{\numberline {21}{\ignorespaces Widok biblioteka\relax }}{14}}
\@writefile{lof}{\contentsline {figure}{\numberline {22}{\ignorespaces Widok czytelnik\relax }}{14}}
\@writefile{lof}{\contentsline {figure}{\numberline {23}{\ignorespaces Widok pracownik\relax }}{15}}
\@writefile{lof}{\contentsline {figure}{\numberline {24}{\ignorespaces Widok ksiazki\relax }}{15}}
\@writefile{lof}{\contentsline {figure}{\numberline {25}{\ignorespaces Indeksy dla tabeli ksiazki\relax }}{15}}
\@writefile{lof}{\contentsline {figure}{\numberline {26}{\ignorespaces Indeksy dla tabeli autor\relax }}{15}}
\@writefile{lof}{\contentsline {figure}{\numberline {27}{\ignorespaces Indeksy dla tabeli czytelnik\relax }}{15}}
\@writefile{toc}{\contentsline {subsection}{\numberline {4.3}Implementacja uprawnie\IeC {\'n} i innych zabezpiecze\IeC {\'n}}{16}}
\@writefile{lof}{\contentsline {figure}{\numberline {28}{\ignorespaces Lista u\IeC {\.z}ytkownik\IeC {\'o}w serwera SQL\relax }}{16}}
\@writefile{lof}{\contentsline {figure}{\numberline {29}{\ignorespaces Dodanie nowego u\IeC {\.z}ytkownika\relax }}{16}}
\@writefile{lof}{\contentsline {figure}{\numberline {30}{\ignorespaces Ustawienie uprawnie\IeC {\'n} u\IeC {\.z}ytkownika\relax }}{17}}
\@writefile{lof}{\contentsline {figure}{\numberline {31}{\ignorespaces Nowo dodany u\IeC {\.z}ytkownik\relax }}{17}}
\@writefile{lof}{\contentsline {figure}{\numberline {32}{\ignorespaces Logowanie si\IeC {\k e} do serwera SQL\relax }}{18}}
\@writefile{lof}{\contentsline {figure}{\numberline {33}{\ignorespaces Wymagana zmiana has\IeC {\l }a dla nowo dodanego u\IeC {\.z}ytkownika\relax }}{18}}
\@writefile{toc}{\contentsline {subsection}{\numberline {4.4}Testowanie bazy danych na przyk\IeC {\l }adowych danych}{18}}
\@writefile{lof}{\contentsline {figure}{\numberline {34}{\ignorespaces Przyk\IeC {\l }adowe dodawanie nowych rekord\IeC {\'o}w do tabeli autor\relax }}{18}}
\@writefile{lof}{\contentsline {figure}{\numberline {35}{\ignorespaces B\IeC {\l }\IeC {\k a}d wynikaj\IeC {\k a}cy z wprowadzenia z\IeC {\l }ego typu danych\relax }}{19}}
\@writefile{lof}{\contentsline {figure}{\numberline {36}{\ignorespaces Pr\IeC {\'o}ba wprowadzenia danych nie wype\IeC {\l }niaj\IeC {\k a}c wszystkich wymagaj\IeC {\k a}cych p\IeC {\'o}l\relax }}{19}}
\@writefile{lof}{\contentsline {figure}{\numberline {37}{\ignorespaces Dzia\IeC {\l }anie widoku biblioteki\relax }}{19}}
\@writefile{lof}{\contentsline {figure}{\numberline {38}{\ignorespaces Dzia\IeC {\l }anie widoku ksiazki\relax }}{20}}
\@writefile{lof}{\contentsline {figure}{\numberline {39}{\ignorespaces Dzia\IeC {\l }anie widoku pracownika\relax }}{20}}
\@writefile{lof}{\contentsline {figure}{\numberline {40}{\ignorespaces Dzia\IeC {\l }anie widoku czytelnika\relax }}{20}}
\@writefile{toc}{\contentsline {section}{\numberline {5}Implementacja i testy aplikacji}{20}}
\@writefile{toc}{\contentsline {subsection}{\numberline {5.1}Instalacja i konfigurowanie systemu}{20}}
\@writefile{toc}{\contentsline {subsection}{\numberline {5.2}Instrukcja u\IeC {\.z}ytkowania aplikacji}{20}}
\@writefile{lof}{\contentsline {figure}{\numberline {41}{\ignorespaces Panel logowania w kt\IeC {\'o}rym nale\IeC {\.z}y wpisa\IeC {\'c} sw\IeC {\'o}j login i has\IeC {\l }o, a nastepnie zalogowa\IeC {\'c} si\IeC {\k e}\relax }}{21}}
\@writefile{lof}{\contentsline {figure}{\numberline {42}{\ignorespaces Menu g\IeC {\l }\IeC {\'o}wne\relax }}{21}}
\@writefile{lof}{\contentsline {figure}{\numberline {43}{\ignorespaces Okno obs\IeC {\l }uga czytelnika\relax }}{22}}
\@writefile{lof}{\contentsline {figure}{\numberline {44}{\ignorespaces Okno obs\IeC {\l }uga ksi\IeC {\k a}\IeC {\.z}ek\relax }}{22}}
\@writefile{toc}{\contentsline {subsection}{\numberline {5.3}Testowanie opracowanych funkcji systemu}{22}}
\@writefile{lof}{\contentsline {figure}{\numberline {45}{\ignorespaces Panel logowania - proba wpisania nieistniej\IeC {\k a}cego u\IeC {\.z}ytkownika\relax }}{23}}
\@writefile{lof}{\contentsline {figure}{\numberline {46}{\ignorespaces Panel logowania - proba wpisania nieprawid\IeC {\l }owego has\IeC {\l }a\relax }}{23}}
\@writefile{lof}{\contentsline {figure}{\numberline {47}{\ignorespaces Obs\IeC {\l }uga czytelnika - wy\IeC {\'s}wietlenie szczeg\IeC {\'o}\IeC {\l }owych informacji\relax }}{23}}
\@writefile{lof}{\contentsline {figure}{\numberline {48}{\ignorespaces Obs\IeC {\l }uga czytelnika - wy\IeC {\'s}wietlenie szczeg\IeC {\'o}\IeC {\l }owych informacji\relax }}{24}}
\@writefile{lof}{\contentsline {figure}{\numberline {49}{\ignorespaces Obs\IeC {\l }uga czytelnika - pr\IeC {\'o}ba dodania czytelnika bez wype\IeC {\l }nienia wszystkich wymaganych p\IeC {\'o}l\relax }}{24}}
\@writefile{lof}{\contentsline {figure}{\numberline {50}{\ignorespaces Obs\IeC {\l }uga czytelnika - pr\IeC {\'o}ba dodania czytelnika, kt\IeC {\'o}rego pesel istnieje w bazie\relax }}{25}}
\@writefile{lof}{\contentsline {figure}{\numberline {51}{\ignorespaces Obs\IeC {\l }uga czytelnika - dodawanie czytelnika\relax }}{25}}
\@writefile{lof}{\contentsline {figure}{\numberline {52}{\ignorespaces Obs\IeC {\l }uga czytelnika - dodany czytelnik\relax }}{26}}
\@writefile{lof}{\contentsline {figure}{\numberline {53}{\ignorespaces Obs\IeC {\l }uga czytelnika - usuni\IeC {\k e}ty czytelnik Teodord Kaweck4\relax }}{26}}
\@writefile{lof}{\contentsline {figure}{\numberline {54}{\ignorespaces Obs\IeC {\l }uga czytelnika - wyszukiwanie czytelnik\IeC {\'o}w o nazwisku Kawecki\relax }}{26}}
\@writefile{lof}{\contentsline {figure}{\numberline {55}{\ignorespaces Obs\IeC {\l }uga ksi\IeC {\k a}\IeC {\.z}ek - wy\IeC {\'s}wietlenie szczeg\IeC {\'o}\IeC {\l }owych informacji\relax }}{27}}
\@writefile{lof}{\contentsline {figure}{\numberline {56}{\ignorespaces Obs\IeC {\l }uga ksi\IeC {\k a}\IeC {\.z}ek - pr\IeC {\'o}ba dodania istniej\IeC {\k a}cej ksi\IeC {\k a}\IeC {\.z}ki\relax }}{27}}
\@writefile{lof}{\contentsline {figure}{\numberline {57}{\ignorespaces Obs\IeC {\l }uga ksi\IeC {\k a}\IeC {\.z}ek - dodawanie ksi\IeC {\k a}\IeC {\.z}ki\relax }}{27}}
\@writefile{lof}{\contentsline {figure}{\numberline {58}{\ignorespaces Obs\IeC {\l }uga ksi\IeC {\k a}\IeC {\.z}ek - dodano ksi\IeC {\k a}\IeC {\.z}k\IeC {\k e} o tytule Nowa ksi\IeC {\k a}\IeC {\.z}ka\relax }}{28}}
\@writefile{lof}{\contentsline {figure}{\numberline {59}{\ignorespaces Obs\IeC {\l }uga ksi\IeC {\k a}\IeC {\.z}ek - szukanie ksi\IeC {\k a}\IeC {\.z}ki o tytule Pani domu\relax }}{28}}
\@writefile{toc}{\contentsline {subsection}{\numberline {5.4}Om\IeC {\'o}wienie wybranych funkcjonalno\IeC {\'s}ci systemu}{28}}
\@writefile{toc}{\contentsline {subsubsection}{\numberline {5.4.1}Implementacja dost\IeC {\k e}pu do bazy danych}{28}}
\@writefile{toc}{\contentsline {section}{\numberline {6}Wnioski}{28}}
